<svg width="66" height="66" viewBox="0 0 66 66" fill="none" xmlns="http://www.w3.org/2000/svg">
<g clip-path="url(#clip0_764_2271)">
<g clip-path="url(#clip1_764_2271)">
<path d="M45.7642 18.5024C42.186 15.3883 37.5439 13.4735 32.4183 13.4735C23.4243 13.4735 15.823 19.3341 13.1538 27.4383L17.7185 28.947C19.7494 22.7769 25.552 18.309 32.4183 18.309C36.19 18.309 39.6328 19.7016 42.3214 21.9452L35.3196 28.947H52.7273V11.5393L45.7642 18.5024Z" fill="#1BA58A"/>
</g>
<path d="M21.1586 51.2734C25.108 53.9008 29.9579 55.2021 35.0408 54.5422C43.96 53.3842 50.7435 46.5937 52.3471 38.2133L47.6261 37.3049C46.4065 43.685 41.2275 48.8629 34.4183 49.7469C30.678 50.2325 27.0845 49.2948 24.1295 47.4159L30.1715 39.571L12.9087 41.8122L15.1499 59.075L21.1586 51.2734Z" fill="#1BA58A" fill-opacity="0.2"/>
</g>
<defs>
<clipPath id="clip0_764_2271">
<rect width="66" height="66" fill="white"/>
</clipPath>
<clipPath id="clip1_764_2271">
<rect width="46.4205" height="46.4205" fill="white" transform="translate(10.1753 -2)"/>
</clipPath>
</defs>
</svg>
